Find and annotate mutational clusters.
…
Alex Janse

2018-09-18

The cMut package provide functions to find and annotate clustered mutations. In the following examples, the functions will be explained and used.

createRandomMutations

The cMut::createRandomMutation() function will create random single nucleotide variant (SNV) mutations in the human reference genome (GRCh37/hg19) and store them in a tibble (table object from the tidyverse package).

When determine the surrounding nucleotides, the function will take into account that there might be mutations in the table that correspond with the surrounding locations. In this case the mutated nucleotide will be added to the surrounding instead of the reference.

randomData <- cMut::createRandomMutations(nMut = 1000)
randomData
#> # A tibble: 1,000 x 7
#>    chrom     start      stop ref   alt   sampleIDs  surrounding
#>    <chr>     <int>     <int> <chr> <chr> <chr>      <chr>      
#>  1 chr8   12927902  12927902 G     T     testSample TG.AG      
#>  2 chr14  23885661  23885661 A     T     testSample AG.GA      
#>  3 chr13  63288397  63288397 A     C     testSample AC.AA      
#>  4 chr2   54663337  54663337 G     A     testSample AA.AA      
#>  5 chr7  129426308 129426308 T     G     testSample GG.TT      
#>  6 chr5   18236170  18236170 G     A     testSample GA.TG      
#>  7 chrX   27246983  27246983 A     C     testSample CA.AT      
#>  8 chr14  77287293  77287293 T     C     testSample CA.GA      
#>  9 chr10  18472221  18472221 A     T     testSample GT.AC      
#> 10 chr2  183014749 183014749 A     T     testSample AA.GG      
#> # ... with 990 more rows
…
